273225 Matt Meeden 69000 
345678 White Parrish 87000 
456789 Quick Coddington 82000 
471163 Robert Dufour 91000 
499959 Mike Griffin 72000 
502234 Jean Jones 94000 
547935 Daniel McNamee 71000 
553997 Peter Olsen 82000 
584372 Dana Parrish 87000 
586785 Ann Coddington 82000 
599888 Hack Ti 36666 
588889 New Man 36899 
